{
    "version": "1.0.0",
    "summary": "frontend for blackjack",
    "repository": "https://github.com/user/project.git",
    "license": "BSD3",
    "source-directories": [
        "."
    ],
    "exposed-modules": [],
    "dependencies": {
        "elm-lang/core": "3.0.0 <= v < 4.0.0",
        "evancz/elm-html": "4.0.1 <= v < 5.0.0",
        "evancz/start-app": "2.0.0 <= v < 3.0.0"
    },
    "elm-version": "0.16.0 <= v < 0.17.0"
}
